{
    "extensionDescription": {
        "message": "Realización de estudios para el juego en línea Hattrick",
        "description": "Description of the extension."
      },
    
    "colon": {
        "message": ":",
        "description": "Colon"
      },

    "menuItem": {
      "message": "Estudios",
      "description": "Name shown as menu item."
    },

    "mainTitle": {
        "message": "HT Studies",
        "description": "Appears in main header."
    },

    "mainSubtitle": {
        "message": "Participar en estudios estadísticos sobre Hattrick",
        "description": ""
    },

    "description": {
        "message": "HT Studies es una extensión web que le permite participar en estudios estadísticos en Hattrick.",
        "description": ""
    },

    "onGoingStudiesTitle": {
        "message": "Estudios en curso",
        "description": ""
    },

    "notifySubscriptionOn": {
        "message": "¡Participación activada!",
        "description": ""
    },

    "notifySubscriptionOff": {
        "message": "¡Participación cancelada!",
        "description": ""
    },

    "dataLabel": {
        "message": "Datos recogidos",
        "description": ""
    },

    "downloadData": {
        "message": "Descargar datos",
        "description": "Link to download study data"
    },

    "sidebarTitle": {
        "message": "CHPP Status",
        "description": ""
    },

    "sidebarNoUser": {
        "message": "Ningún usuario conectado",
        "description": ""
    },

    "sidebarLoginButton": {
        "message": "CHPP Login",
        "description": ""
    },

    "sidebarUserLabel": {
        "message": "Usuario:",
        "description": ""
    },

    "sidebarTeamLabel": {
        "message": "Equipo:",
        "description": ""
    }

  }